%YAML 1.1
%TAG !u! tag:unity3d.com,2011:
--- !u!114 &11400000
MonoBehaviour:
  m_ObjectHideFlags: 0
  m_PrefabParentObject: {fileID: 0}
  m_PrefabInternal: {fileID: 0}
  m_GameObject: {fileID: 0}
  m_Enabled: 1
  m_EditorHideFlags: 0
  m_Script: {fileID: 11500000, guid: db22b0fe8f0030b489ca82d793ce8dff, type: 3}
  m_Name: Sound manager
  m_EditorClassIdentifier: 
  currentSource: {fileID: 0}
  masterAudio: {fileID: 24300002, guid: b5555de607ce0ca43aeaee028422a89a, type: 2}
  sounds:
  - name: 0
    clip: {fileID: 8300000, guid: 5f272b0b70a6cc7409bbc47267e85712, type: 3}
  - name: 1
    clip: {fileID: 8300000, guid: 85a69fd0999e2cc4cb72dd92f0be466f, type: 3}
  - name: 2
    clip: {fileID: 8300000, guid: a7a1f7bbeeb3ceb44971d02071b3d444, type: 3}
  - name: 3
    clip: {fileID: 8300000, guid: 53a6cd51606060e44b1476d9ffb0fdce, type: 3}
  - name: 4
    clip: {fileID: 8300000, guid: 650bd42efc3418a48bc09460da58df2d, type: 3}
  - name: 5
    clip: {fileID: 8300000, guid: ac91b2e4cd1636546bbc940a92b4d093, type: 3}
  - name: 6
    clip: {fileID: 8300000, guid: 098d8d11070cbc346a1e01ac4bce67b7, type: 3}
  - name: 7
    clip: {fileID: 8300000, guid: e054e8faebd80fb4aa020ee0437cc18d, type: 3}
  - name: 8
    clip: {fileID: 8300000, guid: 17daddc7bc80d544e9165811c7a81cc3, type: 3}
  - name: 9
    clip: {fileID: 8300000, guid: 8fb4c0bb9ca811d42b276a2f1efc1693, type: 3}
  - name: 10
    clip: {fileID: 8300000, guid: 73f62247cea54a6439fa6a6c9638961a, type: 3}
  - name: 11
    clip: {fileID: 8300000, guid: 8280e3de02ac0224da9f59ead0391333, type: 3}
  - name: 12
    clip: {fileID: 8300000, guid: 66c48ef081c64454aba5c4d5ab4d88b1, type: 3}
  - name: 13
    clip: {fileID: 8300000, guid: 6a8ec31f8a64044499c805bd18cce424, type: 3}
