%YAML 1.1
%TAG !u! tag:unity3d.com,2011:
--- !u!114 &11400000
MonoBehaviour:
  m_ObjectHideFlags: 0
  m_PrefabParentObject: {fileID: 0}
  m_PrefabInternal: {fileID: 0}
  m_GameObject: {fileID: 0}
  m_Enabled: 1
  m_EditorHideFlags: 0
  m_Script: {fileID: 11500000, guid: ff263fc0b29e2ef478681420e52296b0, type: 3}
  m_Name: Spawners Enemy
  m_EditorClassIdentifier: 
  settings:
  - poolSize: 200
    initEnable: 1
    interval: {x: 3, y: 5}
    initDelay: {x: 0, y: 0}
    countRange: {x: 1, y: 2}
    prefabs:
      list:
      - entry: {fileID: 1898197018800620, guid: d82fdb32117b63f48accdfd6ea0965c6,
          type: 2}
        weight: 1
      - entry: {fileID: 1898197018800620, guid: ec983bbe348613a4493cdaf51cb8f002,
          type: 2}
        weight: 2
      - entry: {fileID: 1898197018800620, guid: 04590611d321dbf4f8f81335f058b8f3,
          type: 2}
        weight: 1
  - poolSize: 200
    initEnable: 1
    interval: {x: 5, y: 8}
    initDelay: {x: 20, y: 30}
    countRange: {x: 1, y: 3}
    prefabs:
      list:
      - entry: {fileID: 1898197018800620, guid: e6883ddb570b7af43ad8ba57d4e79826,
          type: 2}
        weight: 1
      - entry: {fileID: 1898197018800620, guid: 8ddef095c8e25154a950635c52f34608,
          type: 2}
        weight: 2
      - entry: {fileID: 1898197018800620, guid: e7c56b08138f6c64ba3e6fae3f102dfa,
          type: 2}
        weight: 1
  - poolSize: 200
    initEnable: 1
    interval: {x: 8, y: 12}
    initDelay: {x: 30, y: 60}
    countRange: {x: 2, y: 9}
    prefabs:
      list:
      - entry: {fileID: 1898197018800620, guid: 269c8399e9dfebe41be355371007f16f,
          type: 2}
        weight: 1
      - entry: {fileID: 1898197018800620, guid: f887684b7537ed040a7d525ce87fdb81,
          type: 2}
        weight: 2
      - entry: {fileID: 1898197018800620, guid: dc246a2744a130d4e98f79a31136a7e5,
          type: 2}
        weight: 1
  - poolSize: 200
    initEnable: 1
    interval: {x: 5, y: 10}
    initDelay: {x: 40, y: 80}
    countRange: {x: 1, y: 4}
    prefabs:
      list:
      - entry: {fileID: 1898197018800620, guid: a89197469ae0dae4b89ce410148ec24e,
          type: 2}
        weight: 1
      - entry: {fileID: 1898197018800620, guid: 7dee6e25ba03ada4eaf09379bbb934a3,
          type: 2}
        weight: 2
      - entry: {fileID: 1898197018800620, guid: 392ff54c7df81de40a302c975253cd52,
          type: 2}
        weight: 1
  - poolSize: 200
    initEnable: 1
    interval: {x: 5, y: 10}
    initDelay: {x: 20, y: 50}
    countRange: {x: 2, y: 6}
    prefabs:
      list:
      - entry: {fileID: 1898197018800620, guid: ac6b14738696b3741937ca0df8049eec,
          type: 2}
        weight: 1
      - entry: {fileID: 1898197018800620, guid: 088e5103f6cff19449cf908e4e910c1e,
          type: 2}
        weight: 2
      - entry: {fileID: 1898197018800620, guid: 038e52eb9483f9d4b8ba78002e302a25,
          type: 2}
        weight: 1
