%YAML 1.1
%TAG !u! tag:unity3d.com,2011:
--- !u!181963792 &2655988077585873504
Preset:
  m_ObjectHideFlags: 0
  m_PrefabParentObject: {fileID: 0}
  m_PrefabInternal: {fileID: 0}
  m_Name: Color Palette UI
  m_TargetType:
    m_NativeTypeID: 114
    m_ManagedTypePPtr: {fileID: 11500000, guid: ff26a4325570b43dea8721d56537c5b1,
      type: 3}
    m_ManagedTypeFallback: 
  m_Properties:
  - target: {fileID: 0}
    propertyPath: m_Enabled
    value: 1
    objectReference: {fileID: 0}
  - target: {fileID: 0}
    propertyPath: m_EditorHideFlags
    value: 0
    objectReference: {fileID: 0}
  - target: {fileID: 0}
    propertyPath: m_Name
    value: Color Palette UI
    objectReference: {fileID: 0}
  - target: {fileID: 0}
    propertyPath: m_EditorClassIdentifier
    value: 
    objectReference: {fileID: 0}
  - target: {fileID: 0}
    propertyPath: palette.Array.size
    value: 1
    objectReference: {fileID: 0}
  - target: {fileID: 0}
    propertyPath: palette.Array.data[0].name
    value: Home scene
    objectReference: {fileID: 0}
  - target: {fileID: 0}
    propertyPath: palette.Array.data[0].colors.Array.size
    value: 3
    objectReference: {fileID: 0}
  - target: {fileID: 0}
    propertyPath: palette.Array.data[0].colors.Array.data[0].r
    value: 0.48627454
    objectReference: {fileID: 0}
  - target: {fileID: 0}
    propertyPath: palette.Array.data[0].colors.Array.data[0].g
    value: 0.75294125
    objectReference: {fileID: 0}
  - target: {fileID: 0}
    propertyPath: palette.Array.data[0].colors.Array.data[0].b
    value: 0.83921576
    objectReference: {fileID: 0}
  - target: {fileID: 0}
    propertyPath: palette.Array.data[0].colors.Array.data[0].a
    value: 1
    objectReference: {fileID: 0}
  - target: {fileID: 0}
    propertyPath: palette.Array.data[0].colors.Array.data[1].r
    value: 0.9607844
    objectReference: {fileID: 0}
  - target: {fileID: 0}
    propertyPath: palette.Array.data[0].colors.Array.data[1].g
    value: 0.8352942
    objectReference: {fileID: 0}
  - target: {fileID: 0}
    propertyPath: palette.Array.data[0].colors.Array.data[1].b
    value: 0.68235296
    objectReference: {fileID: 0}
  - target: {fileID: 0}
    propertyPath: palette.Array.data[0].colors.Array.data[1].a
    value: 1
    objectReference: {fileID: 0}
  - target: {fileID: 0}
    propertyPath: palette.Array.data[0].colors.Array.data[2].r
    value: 0.25
    objectReference: {fileID: 0}
  - target: {fileID: 0}
    propertyPath: palette.Array.data[0].colors.Array.data[2].g
    value: 0.25
    objectReference: {fileID: 0}
  - target: {fileID: 0}
    propertyPath: palette.Array.data[0].colors.Array.data[2].b
    value: 0.25
    objectReference: {fileID: 0}
  - target: {fileID: 0}
    propertyPath: palette.Array.data[0].colors.Array.data[2].a
    value: 1
    objectReference: {fileID: 0}
