%YAML 1.1
%TAG !u! tag:unity3d.com,2011:
--- !u!181963792 &2655988077585873504
Preset:
  m_ObjectHideFlags: 0
  m_PrefabParentObject: {fileID: 0}
  m_PrefabInternal: {fileID: 0}
  m_Name: Spawners enemy v001
  m_TargetType:
    m_NativeTypeID: 114
    m_ManagedTypePPtr: {fileID: 11500000, guid: ff263fc0b29e2ef478681420e52296b0,
      type: 3}
    m_ManagedTypeFallback: 
  m_Properties:
  - target: {fileID: 0}
    propertyPath: m_Enabled
    value: 1
    objectReference: {fileID: 0}
  - target: {fileID: 0}
    propertyPath: m_EditorHideFlags
    value: 0
    objectReference: {fileID: 0}
  - target: {fileID: 0}
    propertyPath: m_Name
    value: Spawners Enemy
    objectReference: {fileID: 0}
  - target: {fileID: 0}
    propertyPath: m_EditorClassIdentifier
    value: 
    objectReference: {fileID: 0}
  - target: {fileID: 0}
    propertyPath: settings.Array.size
    value: 5
    objectReference: {fileID: 0}
  - target: {fileID: 0}
    propertyPath: settings.Array.data[0].poolSize
    value: 200
    objectReference: {fileID: 0}
  - target: {fileID: 0}
    propertyPath: settings.Array.data[0].initEnable
    value: 1
    objectReference: {fileID: 0}
  - target: {fileID: 0}
    propertyPath: settings.Array.data[0].interval.x
    value: 3
    objectReference: {fileID: 0}
  - target: {fileID: 0}
    propertyPath: settings.Array.data[0].interval.y
    value: 5
    objectReference: {fileID: 0}
  - target: {fileID: 0}
    propertyPath: settings.Array.data[0].initDelay.x
    value: 0
    objectReference: {fileID: 0}
  - target: {fileID: 0}
    propertyPath: settings.Array.data[0].initDelay.y
    value: 0
    objectReference: {fileID: 0}
  - target: {fileID: 0}
    propertyPath: settings.Array.data[0].countRange.x
    value: 1
    objectReference: {fileID: 0}
  - target: {fileID: 0}
    propertyPath: settings.Array.data[0].countRange.y
    value: 2
    objectReference: {fileID: 0}
  - target: {fileID: 0}
    propertyPath: settings.Array.data[0].prefabs.list.Array.size
    value: 3
    objectReference: {fileID: 0}
  - target: {fileID: 0}
    propertyPath: settings.Array.data[0].prefabs.list.Array.data[0].entry
    value: 
    objectReference: {fileID: 1898197018800620, guid: d82fdb32117b63f48accdfd6ea0965c6,
      type: 2}
  - target: {fileID: 0}
    propertyPath: settings.Array.data[0].prefabs.list.Array.data[0].weight
    value: 1
    objectReference: {fileID: 0}
  - target: {fileID: 0}
    propertyPath: settings.Array.data[0].prefabs.list.Array.data[1].entry
    value: 
    objectReference: {fileID: 1898197018800620, guid: ec983bbe348613a4493cdaf51cb8f002,
      type: 2}
  - target: {fileID: 0}
    propertyPath: settings.Array.data[0].prefabs.list.Array.data[1].weight
    value: 2
    objectReference: {fileID: 0}
  - target: {fileID: 0}
    propertyPath: settings.Array.data[0].prefabs.list.Array.data[2].entry
    value: 
    objectReference: {fileID: 1898197018800620, guid: 04590611d321dbf4f8f81335f058b8f3,
      type: 2}
  - target: {fileID: 0}
    propertyPath: settings.Array.data[0].prefabs.list.Array.data[2].weight
    value: 1
    objectReference: {fileID: 0}
  - target: {fileID: 0}
    propertyPath: settings.Array.data[1].poolSize
    value: 200
    objectReference: {fileID: 0}
  - target: {fileID: 0}
    propertyPath: settings.Array.data[1].initEnable
    value: 1
    objectReference: {fileID: 0}
  - target: {fileID: 0}
    propertyPath: settings.Array.data[1].interval.x
    value: 5
    objectReference: {fileID: 0}
  - target: {fileID: 0}
    propertyPath: settings.Array.data[1].interval.y
    value: 8
    objectReference: {fileID: 0}
  - target: {fileID: 0}
    propertyPath: settings.Array.data[1].initDelay.x
    value: 20
    objectReference: {fileID: 0}
  - target: {fileID: 0}
    propertyPath: settings.Array.data[1].initDelay.y
    value: 30
    objectReference: {fileID: 0}
  - target: {fileID: 0}
    propertyPath: settings.Array.data[1].countRange.x
    value: 1
    objectReference: {fileID: 0}
  - target: {fileID: 0}
    propertyPath: settings.Array.data[1].countRange.y
    value: 3
    objectReference: {fileID: 0}
  - target: {fileID: 0}
    propertyPath: settings.Array.data[1].prefabs.list.Array.size
    value: 3
    objectReference: {fileID: 0}
  - target: {fileID: 0}
    propertyPath: settings.Array.data[1].prefabs.list.Array.data[0].entry
    value: 
    objectReference: {fileID: 1898197018800620, guid: e6883ddb570b7af43ad8ba57d4e79826,
      type: 2}
  - target: {fileID: 0}
    propertyPath: settings.Array.data[1].prefabs.list.Array.data[0].weight
    value: 1
    objectReference: {fileID: 0}
  - target: {fileID: 0}
    propertyPath: settings.Array.data[1].prefabs.list.Array.data[1].entry
    value: 
    objectReference: {fileID: 1898197018800620, guid: 8ddef095c8e25154a950635c52f34608,
      type: 2}
  - target: {fileID: 0}
    propertyPath: settings.Array.data[1].prefabs.list.Array.data[1].weight
    value: 2
    objectReference: {fileID: 0}
  - target: {fileID: 0}
    propertyPath: settings.Array.data[1].prefabs.list.Array.data[2].entry
    value: 
    objectReference: {fileID: 1898197018800620, guid: e7c56b08138f6c64ba3e6fae3f102dfa,
      type: 2}
  - target: {fileID: 0}
    propertyPath: settings.Array.data[1].prefabs.list.Array.data[2].weight
    value: 1
    objectReference: {fileID: 0}
  - target: {fileID: 0}
    propertyPath: settings.Array.data[2].poolSize
    value: 200
    objectReference: {fileID: 0}
  - target: {fileID: 0}
    propertyPath: settings.Array.data[2].initEnable
    value: 1
    objectReference: {fileID: 0}
  - target: {fileID: 0}
    propertyPath: settings.Array.data[2].interval.x
    value: 8
    objectReference: {fileID: 0}
  - target: {fileID: 0}
    propertyPath: settings.Array.data[2].interval.y
    value: 12
    objectReference: {fileID: 0}
  - target: {fileID: 0}
    propertyPath: settings.Array.data[2].initDelay.x
    value: 30
    objectReference: {fileID: 0}
  - target: {fileID: 0}
    propertyPath: settings.Array.data[2].initDelay.y
    value: 60
    objectReference: {fileID: 0}
  - target: {fileID: 0}
    propertyPath: settings.Array.data[2].countRange.x
    value: 2
    objectReference: {fileID: 0}
  - target: {fileID: 0}
    propertyPath: settings.Array.data[2].countRange.y
    value: 9
    objectReference: {fileID: 0}
  - target: {fileID: 0}
    propertyPath: settings.Array.data[2].prefabs.list.Array.size
    value: 3
    objectReference: {fileID: 0}
  - target: {fileID: 0}
    propertyPath: settings.Array.data[2].prefabs.list.Array.data[0].entry
    value: 
    objectReference: {fileID: 1898197018800620, guid: 269c8399e9dfebe41be355371007f16f,
      type: 2}
  - target: {fileID: 0}
    propertyPath: settings.Array.data[2].prefabs.list.Array.data[0].weight
    value: 1
    objectReference: {fileID: 0}
  - target: {fileID: 0}
    propertyPath: settings.Array.data[2].prefabs.list.Array.data[1].entry
    value: 
    objectReference: {fileID: 1898197018800620, guid: f887684b7537ed040a7d525ce87fdb81,
      type: 2}
  - target: {fileID: 0}
    propertyPath: settings.Array.data[2].prefabs.list.Array.data[1].weight
    value: 2
    objectReference: {fileID: 0}
  - target: {fileID: 0}
    propertyPath: settings.Array.data[2].prefabs.list.Array.data[2].entry
    value: 
    objectReference: {fileID: 1898197018800620, guid: dc246a2744a130d4e98f79a31136a7e5,
      type: 2}
  - target: {fileID: 0}
    propertyPath: settings.Array.data[2].prefabs.list.Array.data[2].weight
    value: 1
    objectReference: {fileID: 0}
  - target: {fileID: 0}
    propertyPath: settings.Array.data[3].poolSize
    value: 200
    objectReference: {fileID: 0}
  - target: {fileID: 0}
    propertyPath: settings.Array.data[3].initEnable
    value: 1
    objectReference: {fileID: 0}
  - target: {fileID: 0}
    propertyPath: settings.Array.data[3].interval.x
    value: 5
    objectReference: {fileID: 0}
  - target: {fileID: 0}
    propertyPath: settings.Array.data[3].interval.y
    value: 10
    objectReference: {fileID: 0}
  - target: {fileID: 0}
    propertyPath: settings.Array.data[3].initDelay.x
    value: 40
    objectReference: {fileID: 0}
  - target: {fileID: 0}
    propertyPath: settings.Array.data[3].initDelay.y
    value: 80
    objectReference: {fileID: 0}
  - target: {fileID: 0}
    propertyPath: settings.Array.data[3].countRange.x
    value: 1
    objectReference: {fileID: 0}
  - target: {fileID: 0}
    propertyPath: settings.Array.data[3].countRange.y
    value: 4
    objectReference: {fileID: 0}
  - target: {fileID: 0}
    propertyPath: settings.Array.data[3].prefabs.list.Array.size
    value: 3
    objectReference: {fileID: 0}
  - target: {fileID: 0}
    propertyPath: settings.Array.data[3].prefabs.list.Array.data[0].entry
    value: 
    objectReference: {fileID: 1898197018800620, guid: a89197469ae0dae4b89ce410148ec24e,
      type: 2}
  - target: {fileID: 0}
    propertyPath: settings.Array.data[3].prefabs.list.Array.data[0].weight
    value: 1
    objectReference: {fileID: 0}
  - target: {fileID: 0}
    propertyPath: settings.Array.data[3].prefabs.list.Array.data[1].entry
    value: 
    objectReference: {fileID: 1898197018800620, guid: 7dee6e25ba03ada4eaf09379bbb934a3,
      type: 2}
  - target: {fileID: 0}
    propertyPath: settings.Array.data[3].prefabs.list.Array.data[1].weight
    value: 2
    objectReference: {fileID: 0}
  - target: {fileID: 0}
    propertyPath: settings.Array.data[3].prefabs.list.Array.data[2].entry
    value: 
    objectReference: {fileID: 1898197018800620, guid: 392ff54c7df81de40a302c975253cd52,
      type: 2}
  - target: {fileID: 0}
    propertyPath: settings.Array.data[3].prefabs.list.Array.data[2].weight
    value: 1
    objectReference: {fileID: 0}
  - target: {fileID: 0}
    propertyPath: settings.Array.data[4].poolSize
    value: 200
    objectReference: {fileID: 0}
  - target: {fileID: 0}
    propertyPath: settings.Array.data[4].initEnable
    value: 1
    objectReference: {fileID: 0}
  - target: {fileID: 0}
    propertyPath: settings.Array.data[4].interval.x
    value: 5
    objectReference: {fileID: 0}
  - target: {fileID: 0}
    propertyPath: settings.Array.data[4].interval.y
    value: 10
    objectReference: {fileID: 0}
  - target: {fileID: 0}
    propertyPath: settings.Array.data[4].initDelay.x
    value: 20
    objectReference: {fileID: 0}
  - target: {fileID: 0}
    propertyPath: settings.Array.data[4].initDelay.y
    value: 50
    objectReference: {fileID: 0}
  - target: {fileID: 0}
    propertyPath: settings.Array.data[4].countRange.x
    value: 2
    objectReference: {fileID: 0}
  - target: {fileID: 0}
    propertyPath: settings.Array.data[4].countRange.y
    value: 6
    objectReference: {fileID: 0}
  - target: {fileID: 0}
    propertyPath: settings.Array.data[4].prefabs.list.Array.size
    value: 3
    objectReference: {fileID: 0}
  - target: {fileID: 0}
    propertyPath: settings.Array.data[4].prefabs.list.Array.data[0].entry
    value: 
    objectReference: {fileID: 1898197018800620, guid: ac6b14738696b3741937ca0df8049eec,
      type: 2}
  - target: {fileID: 0}
    propertyPath: settings.Array.data[4].prefabs.list.Array.data[0].weight
    value: 1
    objectReference: {fileID: 0}
  - target: {fileID: 0}
    propertyPath: settings.Array.data[4].prefabs.list.Array.data[1].entry
    value: 
    objectReference: {fileID: 1898197018800620, guid: 088e5103f6cff19449cf908e4e910c1e,
      type: 2}
  - target: {fileID: 0}
    propertyPath: settings.Array.data[4].prefabs.list.Array.data[1].weight
    value: 2
    objectReference: {fileID: 0}
  - target: {fileID: 0}
    propertyPath: settings.Array.data[4].prefabs.list.Array.data[2].entry
    value: 
    objectReference: {fileID: 1898197018800620, guid: 038e52eb9483f9d4b8ba78002e302a25,
      type: 2}
  - target: {fileID: 0}
    propertyPath: settings.Array.data[4].prefabs.list.Array.data[2].weight
    value: 1
    objectReference: {fileID: 0}
