%YAML 1.1
%TAG !u! tag:unity3d.com,2011:
--- !u!78 &1
TagManager:
  serializedVersion: 2
  tags: []
  layers:
  - Default
  - TransparentFX
  - Ignore Raycast
  - 
  - Water
  - UI
  - 
  - 
  - Player
  - Bounds
  - Enemy
  - Powers
  - PlayerBullets
  - EnemyBullets
  - 
  - 
  - 
  - 
  - 
  - 
  - 
  - 
  - 
  - 
  - 
  - 
  - 
  - 
  - 
  - 
  - 
  - 
  m_SortingLayers:
  - name: Default
    uniqueID: 0
    locked: 0
  - name: Game
    uniqueID: 3599805241
    locked: 0
  - name: Bounds
    uniqueID: 3618661943
    locked: 0
  - name: UI
    uniqueID: 1694735381
    locked: 0
  - name: Above UI
    uniqueID: 941719771
    locked: 0
